info face="Manaspace Regular" size=12 bold=0 italic=0 charset="" unicode=0 stretchH=100 smooth=1 aa=1 padding=1,1,1,1 spacing=-2,-2
common lineHeight=13 base=9 scaleW=512 scaleH=512 pages=1 packed=0
page id=0 file="manaspace.png"
chars count=96
char id=10      x=0    y=0    width=0    height=0    xoffset=0    yoffset=0    xadvance=0    page=0    chnl=0 
char id=32      x=0    y=0    width=0    height=0    xoffset=-1   yoffset=8    xadvance=8    page=0    chnl=0 
char id=33      x=355  y=0    width=5    height=11   xoffset=2    yoffset=-1   xadvance=8    page=0    chnl=0 
char id=34      x=119  y=14   width=7    height=6    xoffset=1    yoffset=-1   xadvance=8    page=0    chnl=0 
char id=35      x=424  y=0    width=8    height=11   xoffset=0    yoffset=-1   xadvance=8    page=0    chnl=0 
char id=36      x=408  y=0    width=8    height=11   xoffset=0    yoffset=-1   xadvance=8    page=0    chnl=0 
char id=37      x=416  y=0    width=8    height=11   xoffset=0    yoffset=-1   xadvance=8    page=0    chnl=0 
char id=38      x=461  y=0    width=8    height=10   xoffset=0    yoffset=0    xadvance=8    page=0    chnl=0 
char id=39      x=126  y=14   width=4    height=6    xoffset=1    yoffset=-1   xadvance=8    page=0    chnl=0 
char id=40      x=372  y=0    width=5    height=11   xoffset=2    yoffset=-1   xadvance=8    page=0    chnl=0 
char id=41      x=377  y=0    width=5    height=11   xoffset=1    yoffset=-1   xadvance=8    page=0    chnl=0 
char id=42      x=432  y=0    width=7    height=11   xoffset=0    yoffset=-1   xadvance=8    page=0    chnl=0 
char id=43      x=111  y=14   width=8    height=7    xoffset=0    yoffset=1    xadvance=8    page=0    chnl=0 
char id=44      x=126  y=14   width=4    height=6    xoffset=0    yoffset=6    xadvance=8    page=0    chnl=0 
char id=45      x=142  y=14   width=8    height=3    xoffset=0    yoffset=3    xadvance=8    page=0    chnl=0 
char id=46      x=138  y=14   width=4    height=4    xoffset=0    yoffset=6    xadvance=8    page=0    chnl=0 
char id=47      x=439  y=0    width=7    height=10   xoffset=0    yoffset=0    xadvance=8    page=0    chnl=0 
char id=48      x=347  y=0    width=8    height=11   xoffset=0    yoffset=-1   xadvance=8    page=0    chnl=0 
char id=49      x=277  y=0    width=6    height=11   xoffset=1    yoffset=-1   xadvance=8    page=0    chnl=0 
char id=50      x=283  y=0    width=8    height=11   xoffset=0    yoffset=-1   xadvance=8    page=0    chnl=0 
char id=51      x=291  y=0    width=8    height=11   xoffset=0    yoffset=-1   xadvance=8    page=0    chnl=0 
char id=52      x=299  y=0    width=8    height=11   xoffset=0    yoffset=-1   xadvance=8    page=0    chnl=0 
char id=53      x=307  y=0    width=8    height=11   xoffset=0    yoffset=-1   xadvance=8    page=0    chnl=0 
char id=54      x=315  y=0    width=8    height=11   xoffset=0    yoffset=-1   xadvance=8    page=0    chnl=0 
char id=55      x=323  y=0    width=8    height=11   xoffset=0    yoffset=-1   xadvance=8    page=0    chnl=0 
char id=56      x=331  y=0    width=8    height=11   xoffset=0    yoffset=-1   xadvance=8    page=0    chnl=0 
char id=57      x=339  y=0    width=8    height=11   xoffset=0    yoffset=-1   xadvance=8    page=0    chnl=0 
char id=58      x=475  y=0    width=4    height=9    xoffset=2    yoffset=0    xadvance=8    page=0    chnl=0 
char id=59      x=368  y=0    width=4    height=11   xoffset=2    yoffset=0    xadvance=8    page=0    chnl=0 
char id=60      x=79   y=14   width=8    height=8    xoffset=0    yoffset=2    xadvance=8    page=0    chnl=0 
char id=61      x=130  y=14   width=8    height=5    xoffset=0    yoffset=2    xadvance=8    page=0    chnl=0 
char id=62      x=87   y=14   width=8    height=8    xoffset=0    yoffset=2    xadvance=8    page=0    chnl=0 
char id=63      x=360  y=0    width=8    height=11   xoffset=0    yoffset=-1   xadvance=8    page=0    chnl=0 
char id=64      x=446  y=0    width=8    height=10   xoffset=0    yoffset=0    xadvance=8    page=0    chnl=0 
char id=65      x=5    y=0    width=8    height=11   xoffset=0    yoffset=-1   xadvance=8    page=0    chnl=0 
char id=66      x=13   y=0    width=8    height=11   xoffset=0    yoffset=-1   xadvance=8    page=0    chnl=0 
char id=67      x=21   y=0    width=8    height=11   xoffset=0    yoffset=-1   xadvance=8    page=0    chnl=0 
char id=68      x=29   y=0    width=8    height=11   xoffset=0    yoffset=-1   xadvance=8    page=0    chnl=0 
char id=69      x=37   y=0    width=8    height=11   xoffset=0    yoffset=-1   xadvance=8    page=0    chnl=0 
char id=70      x=45   y=0    width=8    height=11   xoffset=0    yoffset=-1   xadvance=8    page=0    chnl=0 
char id=71      x=53   y=0    width=8    height=11   xoffset=0    yoffset=-1   xadvance=8    page=0    chnl=0 
char id=72      x=61   y=0    width=8    height=11   xoffset=0    yoffset=-1   xadvance=8    page=0    chnl=0 
char id=73      x=69   y=0    width=4    height=11   xoffset=2    yoffset=-1   xadvance=8    page=0    chnl=0 
char id=74      x=73   y=0    width=8    height=11   xoffset=0    yoffset=-1   xadvance=8    page=0    chnl=0 
char id=75      x=81   y=0    width=8    height=11   xoffset=0    yoffset=-1   xadvance=8    page=0    chnl=0 
char id=76      x=89   y=0    width=8    height=11   xoffset=0    yoffset=-1   xadvance=8    page=0    chnl=0 
char id=77      x=97   y=0    width=8    height=11   xoffset=0    yoffset=-1   xadvance=8    page=0    chnl=0 
char id=78      x=105  y=0    width=8    height=11   xoffset=0    yoffset=-1   xadvance=8    page=0    chnl=0 
char id=79      x=113  y=0    width=8    height=11   xoffset=0    yoffset=-1   xadvance=8    page=0    chnl=0 
char id=80      x=121  y=0    width=8    height=11   xoffset=0    yoffset=-1   xadvance=8    page=0    chnl=0 
char id=81      x=129  y=0    width=8    height=11   xoffset=0    yoffset=-1   xadvance=8    page=0    chnl=0 
char id=82      x=137  y=0    width=8    height=11   xoffset=0    yoffset=-1   xadvance=8    page=0    chnl=0 
char id=83      x=145  y=0    width=8    height=11   xoffset=0    yoffset=-1   xadvance=8    page=0    chnl=0 
char id=84      x=153  y=0    width=8    height=11   xoffset=0    yoffset=-1   xadvance=8    page=0    chnl=0 
char id=85      x=161  y=0    width=8    height=11   xoffset=0    yoffset=-1   xadvance=8    page=0    chnl=0 
char id=86      x=169  y=0    width=8    height=11   xoffset=0    yoffset=-1   xadvance=8    page=0    chnl=0 
char id=87      x=177  y=0    width=8    height=11   xoffset=0    yoffset=-1   xadvance=8    page=0    chnl=0 
char id=88      x=185  y=0    width=8    height=11   xoffset=0    yoffset=-1   xadvance=8    page=0    chnl=0 
char id=89      x=193  y=0    width=8    height=11   xoffset=0    yoffset=-1   xadvance=8    page=0    chnl=0 
char id=90      x=201  y=0    width=8    height=11   xoffset=0    yoffset=-1   xadvance=8    page=0    chnl=0 
char id=91      x=382  y=0    width=5    height=11   xoffset=2    yoffset=-1   xadvance=8    page=0    chnl=0 
char id=92      x=454  y=0    width=7    height=10   xoffset=1    yoffset=0    xadvance=8    page=0    chnl=0 
char id=93      x=387  y=0    width=5    height=11   xoffset=1    yoffset=-1   xadvance=8    page=0    chnl=0 
char id=94      x=95   y=14   width=8    height=8    xoffset=0    yoffset=2    xadvance=8    page=0    chnl=0 
char id=95      x=142  y=14   width=8    height=3    xoffset=0    yoffset=7    xadvance=8    page=0    chnl=0 
char id=96      x=71   y=14   width=8    height=8    xoffset=0    yoffset=2    xadvance=8    page=0    chnl=0 
char id=97      x=479  y=0    width=8    height=8    xoffset=0    yoffset=2    xadvance=8    page=0    chnl=0 
char id=98      x=209  y=0    width=8    height=11   xoffset=0    yoffset=-1   xadvance=8    page=0    chnl=0 
char id=99      x=487  y=0    width=8    height=8    xoffset=0    yoffset=2    xadvance=8    page=0    chnl=0 
char id=100     x=217  y=0    width=8    height=11   xoffset=0    yoffset=-1   xadvance=8    page=0    chnl=0 
char id=101     x=495  y=0    width=8    height=8    xoffset=0    yoffset=2    xadvance=8    page=0    chnl=0 
char id=102     x=225  y=0    width=8    height=11   xoffset=0    yoffset=-1   xadvance=8    page=0    chnl=0 
char id=103     x=233  y=0    width=8    height=11   xoffset=0    yoffset=2    xadvance=8    page=0    chnl=0 
char id=104     x=241  y=0    width=8    height=11   xoffset=0    yoffset=-1   xadvance=8    page=0    chnl=0 
char id=105     x=249  y=0    width=4    height=11   xoffset=2    yoffset=-1   xadvance=8    page=0    chnl=0 
char id=106     x=0    y=0    width=5    height=14   xoffset=1    yoffset=-1   xadvance=8    page=0    chnl=0 
char id=107     x=253  y=0    width=8    height=11   xoffset=0    yoffset=-1   xadvance=8    page=0    chnl=0 
char id=108     x=69   y=0    width=4    height=11   xoffset=2    yoffset=-1   xadvance=8    page=0    chnl=0 
char id=109     x=503  y=0    width=8    height=8    xoffset=0    yoffset=2    xadvance=8    page=0    chnl=0 
char id=110     x=0    y=14   width=8    height=8    xoffset=0    yoffset=2    xadvance=8    page=0    chnl=0 
char id=111     x=8    y=14   width=8    height=8    xoffset=0    yoffset=2    xadvance=8    page=0    chnl=0 
char id=112     x=121  y=0    width=8    height=11   xoffset=0    yoffset=2    xadvance=8    page=0    chnl=0 
char id=113     x=261  y=0    width=8    height=11   xoffset=0    yoffset=2    xadvance=8    page=0    chnl=0 
char id=114     x=16   y=14   width=7    height=8    xoffset=0    yoffset=2    xadvance=8    page=0    chnl=0 
char id=115     x=23   y=14   width=8    height=8    xoffset=0    yoffset=2    xadvance=8    page=0    chnl=0 
char id=116     x=469  y=0    width=6    height=9    xoffset=1    yoffset=1    xadvance=8    page=0    chnl=0 
char id=117     x=31   y=14   width=8    height=8    xoffset=0    yoffset=2    xadvance=8    page=0    chnl=0 
char id=118     x=39   y=14   width=8    height=8    xoffset=0    yoffset=2    xadvance=8    page=0    chnl=0 
char id=119     x=47   y=14   width=8    height=8    xoffset=0    yoffset=2    xadvance=8    page=0    chnl=0 
char id=120     x=55   y=14   width=8    height=8    xoffset=0    yoffset=2    xadvance=8    page=0    chnl=0 
char id=121     x=269  y=0    width=8    height=11   xoffset=0    yoffset=2    xadvance=8    page=0    chnl=0 
char id=122     x=63   y=14   width=8    height=8    xoffset=0    yoffset=2    xadvance=8    page=0    chnl=0 
char id=123     x=392  y=0    width=6    height=11   xoffset=1    yoffset=-1   xadvance=8    page=0    chnl=0 
char id=124     x=404  y=0    width=4    height=11   xoffset=2    yoffset=-1   xadvance=8    page=0    chnl=0 
char id=125     x=398  y=0    width=6    height=11   xoffset=1    yoffset=-1   xadvance=8    page=0    chnl=0 
char id=126     x=103  y=14   width=8    height=8    xoffset=0    yoffset=2    xadvance=8    page=0    chnl=0 
kernings count=0
